<?xml version="1.0" encoding="UTF-8"?>
<svg width="36px" height="36px" viewBox="0 0 36 36" version="1.1" xmlns="http://www.w3.org/2000/svg" xmlns:xlink="http://www.w3.org/1999/xlink">
    <!-- Generator: Sketch 50.2 (55047) - http://www.bohemiancoding.com/sketch -->
    <title>icon-boxred</title>
    <desc>Created with Sketch.</desc>
    <defs></defs>
    <g id="icon-boxred" stroke="none" stroke-width="1" fill="none" fill-rule="evenodd">
        <g id="icon/box/popsafe_box_red" transform="translate(7.000000, 7.000000)" fill="#EF617A">
            <path d="M0.0238363636,17.886962 L-7.18357496e-14,6.811082 C-0.00125454545,6.265982 0.505163636,5.897522 0.960563636,6.111882 L10.1266909,10.422082 C10.3801091,10.541222 10.5448727,10.814922 10.5452909,11.117602 L10.5691273,22.193482 C10.5703818,22.738582 10.0639636,23.107042 9.60856364,22.892682 L0.442436364,18.582482 C0.189018182,18.463342 0.0242545455,18.190102 0.0238363636,17.886962" id="Fill-1"></path>
            <path d="M10.9738018,0 C11.0528382,0 11.1322927,0.01748 11.2063109,0.05336 L19.2190927,3.93898 C19.6736564,4.15978 19.6753291,4.86864 19.2216018,5.09128 L11.2255473,9.0183 C11.1515291,9.05464 11.0724927,9.07304 10.9934564,9.07304 C10.9140018,9.0735 10.8349655,9.05556 10.7609473,9.01968 L2.74774727,5.13406 C2.29318364,4.91372 2.29192909,4.20486 2.74523818,3.98222 L10.7417109,0.05474 C10.8153109,0.0184 10.8947655,0 10.9738018,0" id="Fill-4"></path>
            <path d="M21.8906055,5.996192 C22.2540055,5.995272 22.5806055,6.316812 22.5814418,6.753812 L22.6052782,17.829692 C22.6056964,18.132372 22.4426055,18.406992 22.1896055,18.527512 L13.0418782,22.885092 C12.9519691,22.928332 12.8595509,22.948112 12.7692236,22.948572 C12.4058236,22.949492 12.0792236,22.627952 12.0783873,22.190952 L12.0545509,11.115072 C12.0541327,10.812392 12.2172236,10.537772 12.4702236,10.417252 L21.6179509,6.059672 C21.7082782,6.016432 21.8006964,5.996652 21.8906055,5.996192" id="Fill-6"></path>
        </g>
    </g>
</svg>